EESchema Schematic File Version 2
LIBS:power
LIBS:device
LIBS:74xx
LIBS:audio
LIBS:interface
LIBS:connsingle
LIBS:rd53a_hybrid_wirebonds
LIBS:solder_pad
LIBS:rd53a_hybrid_pseudoquad-cache
EELAYER 25 0
EELAYER END
$Descr C 22000 17000
encoding utf-8
Sheet 3 9
Title "RD53A hybrid pseudoquad"
Date ""
Rev "2.0"
Comp ""
Comment1 ""
Comment2 ""
Comment3 ""
Comment4 ""
$EndDescr
$Comp
L RD53A U4
U 1 1 5B06177E
P 10850 5900
AR Path="/5B1BB7BD/5B061770/5B06177E" Ref="U4"  Part="1" 
AR Path="/5B1B2A29/5B061770/5B06177E" Ref="U8"  Part="1" 
AR Path="/5B1B2A32/5B061770/5B06177E" Ref="U12"  Part="1" 
AR Path="/5B1B2A3B/5B061770/5B06177E" Ref="U16"  Part="1" 
AR Path="/5B06177E" Ref="U8"  Part="1" 
F 0 "U4" H 10900 5500 500 0000 C CNN
F 1 "RD53A" H 11000 6200 500 0000 C CNN
F 2 "Library:rd53a_hybrid_wirebonds" H 7100 4050 60  0001 C CNN
F 3 "" H 7100 4050 60  0001 C CNN
	1    10850 5900
	1    0    0    -1  
$EndComp
NoConn ~ 4500 2100
NoConn ~ 4650 2100
NoConn ~ 4800 2100
NoConn ~ 4950 2100
NoConn ~ 5100 2100
NoConn ~ 5250 2100
NoConn ~ 5400 2100
NoConn ~ 5550 2100
NoConn ~ 5700 2100
NoConn ~ 5850 2100
NoConn ~ 6000 2100
NoConn ~ 6150 2100
NoConn ~ 6300 2100
NoConn ~ 6450 2100
NoConn ~ 6600 2100
NoConn ~ 6750 2100
NoConn ~ 6900 2100
NoConn ~ 7050 2100
NoConn ~ 7200 2100
NoConn ~ 7350 2100
NoConn ~ 7500 2100
NoConn ~ 7650 2100
NoConn ~ 7800 2100
NoConn ~ 7950 2100
NoConn ~ 8100 2100
NoConn ~ 8250 2100
NoConn ~ 8400 2100
NoConn ~ 8550 2100
NoConn ~ 8700 2100
NoConn ~ 8850 2100
NoConn ~ 9000 2100
NoConn ~ 9150 2100
NoConn ~ 9300 2100
NoConn ~ 9450 2100
NoConn ~ 9600 2100
NoConn ~ 9750 2100
NoConn ~ 9900 2100
NoConn ~ 10050 2100
NoConn ~ 10200 2100
NoConn ~ 10350 2100
NoConn ~ 10500 2100
NoConn ~ 10650 2100
NoConn ~ 10800 2100
NoConn ~ 10950 2100
NoConn ~ 11100 2100
NoConn ~ 11250 2100
NoConn ~ 11400 2100
NoConn ~ 11550 2100
NoConn ~ 11700 2100
NoConn ~ 11850 2100
NoConn ~ 12000 2100
NoConn ~ 12150 2100
NoConn ~ 12300 2100
NoConn ~ 12450 2100
NoConn ~ 12600 2100
NoConn ~ 12750 2100
NoConn ~ 12900 2100
NoConn ~ 13050 2100
NoConn ~ 13200 2100
NoConn ~ 13350 2100
NoConn ~ 13500 2100
NoConn ~ 13650 2100
NoConn ~ 13800 2100
NoConn ~ 13950 2100
NoConn ~ 14100 2100
NoConn ~ 14250 2100
NoConn ~ 14400 2100
NoConn ~ 14550 2100
NoConn ~ 14700 2100
NoConn ~ 14850 2100
NoConn ~ 15000 2100
NoConn ~ 15150 2100
NoConn ~ 15300 2100
NoConn ~ 15450 2100
NoConn ~ 15600 2100
NoConn ~ 15750 2100
NoConn ~ 15900 2100
NoConn ~ 16050 2100
NoConn ~ 16200 2100
NoConn ~ 16350 2100
NoConn ~ 16500 2100
NoConn ~ 16650 2100
NoConn ~ 16800 2100
NoConn ~ 16950 2100
NoConn ~ 17100 2100
NoConn ~ 17250 2100
NoConn ~ 17400 2100
NoConn ~ 17550 2100
NoConn ~ 17700 2100
NoConn ~ 17850 2100
NoConn ~ 18000 2100
NoConn ~ 18150 2100
NoConn ~ 18300 2100
NoConn ~ 18450 2100
NoConn ~ 18600 2100
NoConn ~ 19450 2750
NoConn ~ 19450 2900
NoConn ~ 19450 3050
NoConn ~ 19450 3200
NoConn ~ 19450 3350
NoConn ~ 19450 9050
NoConn ~ 19450 9200
NoConn ~ 19450 9350
NoConn ~ 19450 9500
NoConn ~ 19450 9650
NoConn ~ 18600 10100
NoConn ~ 18450 10100
NoConn ~ 18300 10100
NoConn ~ 18150 10100
NoConn ~ 17550 10100
NoConn ~ 10800 10100
NoConn ~ 10650 10100
NoConn ~ 9900 10100
NoConn ~ 9750 10100
NoConn ~ 5100 10100
NoConn ~ 4050 10100
NoConn ~ 3450 9850
NoConn ~ 3450 9700
NoConn ~ 3450 9550
NoConn ~ 3450 9400
NoConn ~ 3450 9250
NoConn ~ 3450 9100
NoConn ~ 3450 3400
NoConn ~ 3450 3250
Text HLabel 20200 3500 2    60   Input ~ 0
HITOR_3_N
Text HLabel 20200 3650 2    60   Input ~ 0
HITOR_3_P
Text HLabel 20200 3800 2    60   Input ~ 0
HITOR_2_N
Text HLabel 20200 3950 2    60   Input ~ 0
HITOR_2_P
Text HLabel 20200 4250 2    60   Input ~ 0
HITOR_1_P
Text HLabel 20200 4100 2    60   Input ~ 0
HITOR_1_N
Text HLabel 20200 4400 2    60   Input ~ 0
HITOR_0_N
Text HLabel 20200 4550 2    60   Input ~ 0
HITOR_0_P
Text Label 20200 3500 2    60   ~ 0
HITOR_3_N
Text Label 20200 3650 2    60   ~ 0
HITOR_3_P
Text Label 20200 3800 2    60   ~ 0
HITOR_2_N
Text Label 20200 3950 2    60   ~ 0
HITOR_2_P
Text Label 20200 4100 2    60   ~ 0
HITOR_1_N
Text Label 20200 4250 2    60   ~ 0
HITOR_1_P
Text Label 20200 4550 2    60   ~ 0
HITOR_0_P
Text Label 20200 4400 2    60   ~ 0
HITOR_0_N
Text Label 20200 9800 2    60   ~ 0
VDDA4
Text Label 18700 11000 1    60   ~ 0
PLL_RST_B
Text Label 4350 11000 1    60   ~ 0
VDDD1
Text Notes 4500 11150 2    60   ~ 0
Chip ID
Text Label 2750 8950 0    60   ~ 0
POR_OUT_B
Text Label 1650 11800 0    60   ~ 0
POR_OUT_B
Text Label 3250 11800 2    60   ~ 0
PLL_RST_B
Text Label 11250 10550 1    60   ~ 0
DO_3_P
Text HLabel 11250 10550 3    60   Output ~ 0
DO_3_P
Text HLabel 10200 10550 3    60   Input ~ 0
CMD_N
Text HLabel 10050 10550 3    60   Input ~ 0
CMD_P
Text HLabel 11400 10550 3    60   Output ~ 0
DO_3_N
Text HLabel 11700 10550 3    60   Output ~ 0
DO_2_P
Text HLabel 11850 10550 3    60   Output ~ 0
DO_2_N
Text HLabel 12150 10550 3    60   Output ~ 0
DO_1_P
Text HLabel 12300 10550 3    60   Output ~ 0
DO_1_N
Text HLabel 12600 10550 3    60   Output ~ 0
DO_0_P
Text HLabel 12750 10550 3    60   Output ~ 0
DO_0_N
Text Label 11400 10550 1    60   ~ 0
DO_3_N
Text Label 10200 10550 1    60   ~ 0
CMD_N
Text Label 10050 10550 1    60   ~ 0
CMD_P
Text Label 11700 10550 1    60   ~ 0
DO_2_P
Text Label 11850 10550 1    60   ~ 0
DO_2_N
Text Label 12150 10550 1    60   ~ 0
DO_1_P
Text Label 12300 10550 1    60   ~ 0
DO_1_N
Text Label 12600 10550 1    60   ~ 0
DO_0_P
Text Label 12750 10550 1    60   ~ 0
DO_0_N
$Comp
L C C8
U 1 1 5B0721F5
P 2600 8800
AR Path="/5B1BB7BD/5B061770/5B0721F5" Ref="C8"  Part="1" 
AR Path="/5B1B2A29/5B061770/5B0721F5" Ref="C33"  Part="1" 
AR Path="/5B1B2A32/5B061770/5B0721F5" Ref="C58"  Part="1" 
AR Path="/5B1B2A3B/5B061770/5B0721F5" Ref="C83"  Part="1" 
F 0 "C8" H 2625 8900 50  0000 L CNN
F 1 "5n" H 2625 8700 50  0000 L CNN
F 2 "Capacitors_SMD:C_0402_NoSilk" H 2638 8650 50  0001 C CNN
F 3 "" H 2600 8800 50  0001 C CNN
	1    2600 8800
	0    1    1    0   
$EndComp
Text Label 2000 8800 0    60   ~ 0
VDDD1
Text Label 2750 8800 0    60   ~ 0
EXT_POR_CAP
$Comp
L C C11
U 1 1 5B072A37
P 3250 12600
AR Path="/5B1BB7BD/5B061770/5B072A37" Ref="C11"  Part="1" 
AR Path="/5B1B2A29/5B061770/5B072A37" Ref="C36"  Part="1" 
AR Path="/5B1B2A32/5B061770/5B072A37" Ref="C61"  Part="1" 
AR Path="/5B1B2A3B/5B061770/5B072A37" Ref="C86"  Part="1" 
F 0 "C11" H 3275 12700 50  0000 L CNN
F 1 "10u" H 3275 12500 50  0000 L CNN
F 2 "Capacitors_SMD:C_0402_NoSilk" H 3288 12450 50  0001 C CNN
F 3 "" H 3250 12600 50  0001 C CNN
	1    3250 12600
	1    0    0    -1  
$EndComp
Text Label 2200 12200 0    60   ~ 0
VIN
Text Label 2200 13000 0    60   ~ 0
VIN_RET
Text HLabel 2200 12200 0    60   Input ~ 0
VIN
Text HLabel 2200 13000 0    60   Output ~ 0
VIN_RET
$Comp
L C C7
U 1 1 5B075BC8
P 2450 2500
AR Path="/5B1BB7BD/5B061770/5B075BC8" Ref="C7"  Part="1" 
AR Path="/5B1B2A29/5B061770/5B075BC8" Ref="C32"  Part="1" 
AR Path="/5B1B2A32/5B061770/5B075BC8" Ref="C57"  Part="1" 
AR Path="/5B1B2A3B/5B061770/5B075BC8" Ref="C82"  Part="1" 
F 0 "C7" H 2475 2600 50  0000 L CNN
F 1 "tbd" H 2475 2400 50  0000 L CNN
F 2 "Capacitors_SMD:C_0201_NoSilk" H 2488 2350 50  0001 C CNN
F 3 "" H 2450 2500 50  0001 C CNN
	1    2450 2500
	0    1    1    0   
$EndComp
$Comp
L C C9
U 1 1 5B075BF3
P 2850 2700
AR Path="/5B1BB7BD/5B061770/5B075BF3" Ref="C9"  Part="1" 
AR Path="/5B1B2A29/5B061770/5B075BF3" Ref="C34"  Part="1" 
AR Path="/5B1B2A32/5B061770/5B075BF3" Ref="C59"  Part="1" 
AR Path="/5B1B2A3B/5B061770/5B075BF3" Ref="C84"  Part="1" 
F 0 "C9" H 2875 2800 50  0000 L CNN
F 1 "100n" H 2875 2600 50  0000 L CNN
F 2 "Capacitors_SMD:C_0402_NoSilk" H 2888 2550 50  0001 C CNN
F 3 "" H 2850 2700 50  0001 C CNN
	1    2850 2700
	0    1    1    0   
$EndComp
Text Label 900  5450 0    60   ~ 0
GND
Text Label 2650 2500 0    60   ~ 0
DET_GND0
Text Label 3000 2700 0    60   ~ 0
VREF
$Comp
L C C10
U 1 1 5B076518
P 2850 3600
AR Path="/5B1BB7BD/5B061770/5B076518" Ref="C10"  Part="1" 
AR Path="/5B1B2A29/5B061770/5B076518" Ref="C35"  Part="1" 
AR Path="/5B1B2A32/5B061770/5B076518" Ref="C60"  Part="1" 
AR Path="/5B1B2A3B/5B061770/5B076518" Ref="C85"  Part="1" 
F 0 "C10" H 2875 3700 50  0000 L CNN
F 1 "100n" H 2875 3500 50  0000 L CNN
F 2 "Capacitors_SMD:C_0402_NoSilk" H 2888 3450 50  0001 C CNN
F 3 "" H 2850 3600 50  0001 C CNN
	1    2850 3600
	0    1    1    0   
$EndComp
Text Label 3000 3600 0    60   ~ 0
IREF
$Comp
L C C4
U 1 1 5B076B7E
P 2350 5650
AR Path="/5B1BB7BD/5B061770/5B076B7E" Ref="C4"  Part="1" 
AR Path="/5B1B2A29/5B061770/5B076B7E" Ref="C29"  Part="1" 
AR Path="/5B1B2A32/5B061770/5B076B7E" Ref="C54"  Part="1" 
AR Path="/5B1B2A3B/5B061770/5B076B7E" Ref="C79"  Part="1" 
F 0 "C4" H 2375 5750 50  0000 L CNN
F 1 "2.2u" H 2375 5550 50  0000 L CNN
F 2 "Capacitors_SMD:C_0402_NoSilk" H 2388 5500 50  0001 C CNN
F 3 "" H 2350 5650 50  0001 C CNN
	1    2350 5650
	0    1    1    0   
$EndComp
Text Label 2500 5650 0    60   ~ 0
VDDA1
$Comp
L C C5
U 1 1 5B0774E9
P 2350 6600
AR Path="/5B1BB7BD/5B061770/5B0774E9" Ref="C5"  Part="1" 
AR Path="/5B1B2A29/5B061770/5B0774E9" Ref="C30"  Part="1" 
AR Path="/5B1B2A32/5B061770/5B0774E9" Ref="C55"  Part="1" 
AR Path="/5B1B2A3B/5B061770/5B0774E9" Ref="C80"  Part="1" 
F 0 "C5" H 2375 6700 50  0000 L CNN
F 1 "10u" H 2375 6500 50  0000 L CNN
F 2 "Capacitors_SMD:C_0402_NoSilk" H 2388 6450 50  0001 C CNN
F 3 "" H 2350 6600 50  0001 C CNN
	1    2350 6600
	0    1    1    0   
$EndComp
$Comp
L C C6
U 1 1 5B07769C
P 2350 7600
AR Path="/5B1BB7BD/5B061770/5B07769C" Ref="C6"  Part="1" 
AR Path="/5B1B2A29/5B061770/5B07769C" Ref="C31"  Part="1" 
AR Path="/5B1B2A32/5B061770/5B07769C" Ref="C56"  Part="1" 
AR Path="/5B1B2A3B/5B061770/5B07769C" Ref="C81"  Part="1" 
F 0 "C6" H 2375 7700 50  0000 L CNN
F 1 "2.2u" H 2375 7500 50  0000 L CNN
F 2 "Capacitors_SMD:C_0402_NoSilk" H 2388 7450 50  0001 C CNN
F 3 "" H 2350 7600 50  0001 C CNN
	1    2350 7600
	0    1    1    0   
$EndComp
Text Label 2500 6600 0    60   ~ 0
VIN
Text Label 2500 7600 0    60   ~ 0
VDDD1
$Comp
L GS2 J2
U 1 1 5B077BCF
P 3050 3850
AR Path="/5B1BB7BD/5B061770/5B077BCF" Ref="J2"  Part="1" 
AR Path="/5B1B2A29/5B061770/5B077BCF" Ref="J7"  Part="1" 
AR Path="/5B1B2A32/5B061770/5B077BCF" Ref="J12"  Part="1" 
AR Path="/5B1B2A3B/5B061770/5B077BCF" Ref="J17"  Part="1" 
F 0 "J2" H 3150 4000 50  0000 C CNN
F 1 "GS2" H 3150 3701 50  0000 C CNN
F 2 "Resistors_SMD:R_0201_NoSilk" V 3124 3850 50  0001 C CNN
F 3 "" H 3050 3850 50  0001 C CNN
	1    3050 3850
	0    1    1    0   
$EndComp
$Comp
L GS2 J3
U 1 1 5B077C2B
P 3050 4000
AR Path="/5B1BB7BD/5B061770/5B077C2B" Ref="J3"  Part="1" 
AR Path="/5B1B2A29/5B061770/5B077C2B" Ref="J8"  Part="1" 
AR Path="/5B1B2A32/5B061770/5B077C2B" Ref="J13"  Part="1" 
AR Path="/5B1B2A3B/5B061770/5B077C2B" Ref="J18"  Part="1" 
F 0 "J3" H 3150 4150 50  0000 C CNN
F 1 "GS2" H 3150 3851 50  0000 C CNN
F 2 "Resistors_SMD:R_0201_NoSilk" V 3124 4000 50  0001 C CNN
F 3 "" H 3050 4000 50  0001 C CNN
	1    3050 4000
	0    1    1    0   
$EndComp
$Comp
L GS2 J4
U 1 1 5B077C60
P 3050 4150
AR Path="/5B1BB7BD/5B061770/5B077C60" Ref="J4"  Part="1" 
AR Path="/5B1B2A29/5B061770/5B077C60" Ref="J9"  Part="1" 
AR Path="/5B1B2A32/5B061770/5B077C60" Ref="J14"  Part="1" 
AR Path="/5B1B2A3B/5B061770/5B077C60" Ref="J19"  Part="1" 
F 0 "J4" H 3150 4300 50  0000 C CNN
F 1 "GS2" H 3150 4001 50  0000 C CNN
F 2 "Resistors_SMD:R_0201_NoSilk" V 3124 4150 50  0001 C CNN
F 3 "" H 3050 4150 50  0001 C CNN
	1    3050 4150
	0    1    1    0   
$EndComp
$Comp
L GS2 J5
U 1 1 5B077C96
P 3050 4300
AR Path="/5B1BB7BD/5B061770/5B077C96" Ref="J5"  Part="1" 
AR Path="/5B1B2A29/5B061770/5B077C96" Ref="J10"  Part="1" 
AR Path="/5B1B2A32/5B061770/5B077C96" Ref="J15"  Part="1" 
AR Path="/5B1B2A3B/5B061770/5B077C96" Ref="J20"  Part="1" 
F 0 "J5" H 3150 4450 50  0000 C CNN
F 1 "GS2" H 3150 4151 50  0000 C CNN
F 2 "Resistors_SMD:R_0201_NoSilk" V 3124 4300 50  0001 C CNN
F 3 "" H 3050 4300 50  0001 C CNN
	1    3050 4300
	0    1    1    0   
$EndComp
Text Label 2300 3850 0    60   ~ 0
VDDA1
$Comp
L R R5
U 1 1 5B07867D
P 2150 3900
AR Path="/5B1BB7BD/5B061770/5B07867D" Ref="R5"  Part="1" 
AR Path="/5B1B2A29/5B061770/5B07867D" Ref="R19"  Part="1" 
AR Path="/5B1B2A32/5B061770/5B07867D" Ref="R33"  Part="1" 
AR Path="/5B1B2A3B/5B061770/5B07867D" Ref="R47"  Part="1" 
F 0 "R5" V 2230 3900 50  0000 C CNN
F 1 "10k" V 2150 3900 50  0000 C CNN
F 2 "Resistors_SMD:R_0201_NoSilk" V 2080 3900 50  0001 C CNN
F 3 "" H 2150 3900 50  0001 C CNN
	1    2150 3900
	0    1    1    0   
$EndComp
$Comp
L R R6
U 1 1 5B078706
P 2150 4050
AR Path="/5B1BB7BD/5B061770/5B078706" Ref="R6"  Part="1" 
AR Path="/5B1B2A29/5B061770/5B078706" Ref="R20"  Part="1" 
AR Path="/5B1B2A32/5B061770/5B078706" Ref="R34"  Part="1" 
AR Path="/5B1B2A3B/5B061770/5B078706" Ref="R48"  Part="1" 
F 0 "R6" V 2230 4050 50  0000 C CNN
F 1 "10k" V 2150 4050 50  0000 C CNN
F 2 "Resistors_SMD:R_0201_NoSilk" V 2080 4050 50  0001 C CNN
F 3 "" H 2150 4050 50  0001 C CNN
	1    2150 4050
	0    1    1    0   
$EndComp
$Comp
L R R7
U 1 1 5B078750
P 2150 4200
AR Path="/5B1BB7BD/5B061770/5B078750" Ref="R7"  Part="1" 
AR Path="/5B1B2A29/5B061770/5B078750" Ref="R21"  Part="1" 
AR Path="/5B1B2A32/5B061770/5B078750" Ref="R35"  Part="1" 
AR Path="/5B1B2A3B/5B061770/5B078750" Ref="R49"  Part="1" 
F 0 "R7" V 2230 4200 50  0000 C CNN
F 1 "10k" V 2150 4200 50  0000 C CNN
F 2 "Resistors_SMD:R_0201_NoSilk" V 2080 4200 50  0001 C CNN
F 3 "" H 2150 4200 50  0001 C CNN
	1    2150 4200
	0    1    1    0   
$EndComp
$Comp
L R R8
U 1 1 5B0787A3
P 2150 4350
AR Path="/5B1BB7BD/5B061770/5B0787A3" Ref="R8"  Part="1" 
AR Path="/5B1B2A29/5B061770/5B0787A3" Ref="R22"  Part="1" 
AR Path="/5B1B2A32/5B061770/5B0787A3" Ref="R36"  Part="1" 
AR Path="/5B1B2A3B/5B061770/5B0787A3" Ref="R50"  Part="1" 
F 0 "R8" V 2230 4350 50  0000 C CNN
F 1 "10k" V 2150 4350 50  0000 C CNN
F 2 "Resistors_SMD:R_0201_NoSilk" V 2080 4350 50  0001 C CNN
F 3 "" H 2150 4350 50  0001 C CNN
	1    2150 4350
	0    1    1    0   
$EndComp
$Comp
L C C22
U 1 1 5B07B712
P 20350 2600
AR Path="/5B1BB7BD/5B061770/5B07B712" Ref="C22"  Part="1" 
AR Path="/5B1B2A29/5B061770/5B07B712" Ref="C47"  Part="1" 
AR Path="/5B1B2A32/5B061770/5B07B712" Ref="C72"  Part="1" 
AR Path="/5B1B2A3B/5B061770/5B07B712" Ref="C97"  Part="1" 
F 0 "C22" H 20375 2700 50  0000 L CNN
F 1 "tbd" H 20375 2500 50  0000 L CNN
F 2 "Capacitors_SMD:C_0201_NoSilk" H 20388 2450 50  0001 C CNN
F 3 "" H 20350 2600 50  0001 C CNN
	1    20350 2600
	0    1    1    0   
$EndComp
Text Label 21450 5600 2    60   ~ 0
GND
Text Label 19550 2600 0    60   ~ 0
DET_GND1
$Comp
L C C23
U 1 1 5B07F046
P 20600 5900
AR Path="/5B1BB7BD/5B061770/5B07F046" Ref="C23"  Part="1" 
AR Path="/5B1B2A29/5B061770/5B07F046" Ref="C48"  Part="1" 
AR Path="/5B1B2A32/5B061770/5B07F046" Ref="C73"  Part="1" 
AR Path="/5B1B2A3B/5B061770/5B07F046" Ref="C98"  Part="1" 
F 0 "C23" H 20625 6000 50  0000 L CNN
F 1 "2.2u" H 20625 5800 50  0000 L CNN
F 2 "Capacitors_SMD:C_0402_NoSilk" H 20638 5750 50  0001 C CNN
F 3 "" H 20600 5900 50  0001 C CNN
	1    20600 5900
	0    1    1    0   
$EndComp
$Comp
L C C24
U 1 1 5B07F0A5
P 20600 6900
AR Path="/5B1BB7BD/5B061770/5B07F0A5" Ref="C24"  Part="1" 
AR Path="/5B1B2A29/5B061770/5B07F0A5" Ref="C49"  Part="1" 
AR Path="/5B1B2A32/5B061770/5B07F0A5" Ref="C74"  Part="1" 
AR Path="/5B1B2A3B/5B061770/5B07F0A5" Ref="C99"  Part="1" 
F 0 "C24" H 20625 7000 50  0000 L CNN
F 1 "10u" H 20625 6800 50  0000 L CNN
F 2 "Capacitors_SMD:C_0402_NoSilk" H 20638 6750 50  0001 C CNN
F 3 "" H 20600 6900 50  0001 C CNN
	1    20600 6900
	0    1    1    0   
$EndComp
$Comp
L C C25
U 1 1 5B07F1D5
P 20600 7850
AR Path="/5B1BB7BD/5B061770/5B07F1D5" Ref="C25"  Part="1" 
AR Path="/5B1B2A29/5B061770/5B07F1D5" Ref="C50"  Part="1" 
AR Path="/5B1B2A32/5B061770/5B07F1D5" Ref="C75"  Part="1" 
AR Path="/5B1B2A3B/5B061770/5B07F1D5" Ref="C100"  Part="1" 
F 0 "C25" H 20625 7950 50  0000 L CNN
F 1 "2.2u" H 20625 7750 50  0000 L CNN
F 2 "Capacitors_SMD:C_0402_NoSilk" H 20638 7700 50  0001 C CNN
F 3 "" H 20600 7850 50  0001 C CNN
	1    20600 7850
	0    1    1    0   
$EndComp
Text Label 20200 5900 0    60   ~ 0
VDDD4
Text Label 20200 6900 0    60   ~ 0
VIN
Text Label 20200 7850 0    60   ~ 0
VDDA4
$Comp
L R R9
U 1 1 5B080720
P 2450 2950
AR Path="/5B1BB7BD/5B061770/5B080720" Ref="R9"  Part="1" 
AR Path="/5B1B2A29/5B061770/5B080720" Ref="R23"  Part="1" 
AR Path="/5B1B2A32/5B061770/5B080720" Ref="R37"  Part="1" 
AR Path="/5B1B2A3B/5B061770/5B080720" Ref="R51"  Part="1" 
F 0 "R9" V 2530 2950 50  0000 C CNN
F 1 "10k" V 2450 2950 50  0000 C CNN
F 2 "Resistors_SMD:R_0402_NoSilk" V 2380 2950 50  0001 C CNN
F 3 "" H 2450 2950 50  0001 C CNN
	1    2450 2950
	0    1    1    0   
$EndComp
Text HLabel 2550 3250 0    60   Output ~ 0
MUX
$Comp
L GS3 J1
U 1 1 5B080CBD
P 2700 3250
AR Path="/5B1BB7BD/5B061770/5B080CBD" Ref="J1"  Part="1" 
AR Path="/5B1B2A29/5B061770/5B080CBD" Ref="J6"  Part="1" 
AR Path="/5B1B2A32/5B061770/5B080CBD" Ref="J11"  Part="1" 
AR Path="/5B1B2A3B/5B061770/5B080CBD" Ref="J16"  Part="1" 
F 0 "J1" H 2750 3450 50  0000 C CNN
F 1 "GS3" H 2750 3051 50  0000 C CNN
F 2 "Library:Solder3Pad" V 2788 3176 50  0001 C CNN
F 3 "" H 2700 3250 50  0001 C CNN
	1    2700 3250
	-1   0    0    1   
$EndComp
Text Label 7400 12500 1    60   ~ 0
GND
Text Label 11650 12500 1    60   ~ 0
GND
Text Label 10350 11800 1    60   ~ 0
VDDA2
$Comp
L C C14
U 1 1 5B0856D7
P 6450 11350
AR Path="/5B1BB7BD/5B061770/5B0856D7" Ref="C14"  Part="1" 
AR Path="/5B1B2A29/5B061770/5B0856D7" Ref="C39"  Part="1" 
AR Path="/5B1B2A32/5B061770/5B0856D7" Ref="C64"  Part="1" 
AR Path="/5B1B2A3B/5B061770/5B0856D7" Ref="C89"  Part="1" 
F 0 "C14" H 6475 11450 50  0000 L CNN
F 1 "2.2u" H 6475 11250 50  0000 L CNN
F 2 "Capacitors_SMD:C_0402_NoSilk" H 6488 11200 50  0001 C CNN
F 3 "" H 6450 11350 50  0001 C CNN
	1    6450 11350
	1    0    0    -1  
$EndComp
$Comp
L C C15
U 1 1 5B0857A1
P 7450 11350
AR Path="/5B1BB7BD/5B061770/5B0857A1" Ref="C15"  Part="1" 
AR Path="/5B1B2A29/5B061770/5B0857A1" Ref="C40"  Part="1" 
AR Path="/5B1B2A32/5B061770/5B0857A1" Ref="C65"  Part="1" 
AR Path="/5B1B2A3B/5B061770/5B0857A1" Ref="C90"  Part="1" 
F 0 "C15" H 7475 11450 50  0000 L CNN
F 1 "10u" H 7475 11250 50  0000 L CNN
F 2 "Capacitors_SMD:C_0402_NoSilk" H 7488 11200 50  0001 C CNN
F 3 "" H 7450 11350 50  0001 C CNN
	1    7450 11350
	1    0    0    -1  
$EndComp
$Comp
L C C16
U 1 1 5B085832
P 8400 11350
AR Path="/5B1BB7BD/5B061770/5B085832" Ref="C16"  Part="1" 
AR Path="/5B1B2A29/5B061770/5B085832" Ref="C41"  Part="1" 
AR Path="/5B1B2A32/5B061770/5B085832" Ref="C66"  Part="1" 
AR Path="/5B1B2A3B/5B061770/5B085832" Ref="C91"  Part="1" 
F 0 "C16" H 8425 11450 50  0000 L CNN
F 1 "2.2u" H 8425 11250 50  0000 L CNN
F 2 "Capacitors_SMD:C_0402_NoSilk" H 8438 11200 50  0001 C CNN
F 3 "" H 8400 11350 50  0001 C CNN
	1    8400 11350
	1    0    0    -1  
$EndComp
Text Label 6450 11200 1    60   ~ 0
VDDA2
Text Label 7450 11200 1    60   ~ 0
VIN
Text Label 8400 11200 1    60   ~ 0
VDDD2
Wire Wire Line
	19450 3500 20200 3500
Wire Wire Line
	19450 3650 20200 3650
Wire Wire Line
	19450 3800 20200 3800
Wire Wire Line
	19450 3950 20200 3950
Wire Wire Line
	19450 4100 20200 4100
Wire Wire Line
	19450 4250 20200 4250
Wire Wire Line
	19450 4400 20200 4400
Wire Wire Line
	19450 4550 20200 4550
Wire Wire Line
	19450 9800 20200 9800
Wire Wire Line
	18700 10100 18700 11000
Wire Wire Line
	4200 10100 4200 10600
Wire Wire Line
	4200 10600 4500 10600
Wire Wire Line
	4350 10100 4350 11000
Wire Wire Line
	4500 10600 4500 10100
Connection ~ 4350 10600
Wire Wire Line
	3450 8950 2750 8950
Wire Wire Line
	1650 11800 3250 11800
Wire Wire Line
	11250 10100 11250 10550
Wire Wire Line
	11400 10100 11400 10550
Wire Wire Line
	11700 10100 11700 10550
Wire Wire Line
	11850 10100 11850 10550
Wire Wire Line
	12150 10100 12150 10550
Wire Wire Line
	12300 10100 12300 10550
Wire Wire Line
	12600 10100 12600 10550
Wire Wire Line
	12750 10100 12750 10550
Wire Wire Line
	10050 10100 10050 10550
Wire Wire Line
	10200 10100 10200 10550
Wire Wire Line
	3450 8800 2750 8800
Wire Wire Line
	2450 8800 2000 8800
Wire Wire Line
	2200 12200 3250 12200
Wire Wire Line
	3250 12200 3250 12450
Wire Wire Line
	3250 12750 3250 13000
Wire Wire Line
	3250 13000 2200 13000
Wire Wire Line
	3450 2500 2600 2500
Wire Wire Line
	3450 2650 3200 2650
Wire Wire Line
	3200 2800 3450 2800
Wire Wire Line
	3200 2650 3200 2800
Wire Wire Line
	3200 2700 3000 2700
Connection ~ 3200 2700
Wire Wire Line
	2300 2500 1800 2500
Wire Wire Line
	1800 2500 1800 8650
Wire Wire Line
	1800 8650 3450 8650
Wire Wire Line
	3450 8500 1800 8500
Connection ~ 1800 8500
Wire Wire Line
	1800 8350 3450 8350
Wire Wire Line
	1800 8200 3450 8200
Connection ~ 1800 8200
Wire Wire Line
	3450 8050 1800 8050
Connection ~ 1800 8050
Connection ~ 1800 8350
Wire Wire Line
	3450 4600 1800 4600
Connection ~ 1800 4600
Wire Wire Line
	3450 4750 1800 4750
Connection ~ 1800 4750
Wire Wire Line
	3450 4900 1800 4900
Connection ~ 1800 4900
Wire Wire Line
	3450 5050 1800 5050
Connection ~ 1800 5050
Wire Wire Line
	1800 5200 3450 5200
Connection ~ 1800 5200
Wire Wire Line
	3450 4450 1800 4450
Connection ~ 1800 4450
Wire Wire Line
	2700 2700 1800 2700
Connection ~ 1800 2700
Wire Wire Line
	1800 5450 900  5450
Wire Wire Line
	3450 3550 3200 3550
Wire Wire Line
	3200 3550 3200 3700
Wire Wire Line
	3200 3700 3450 3700
Connection ~ 3200 3600
Wire Wire Line
	3200 3600 3000 3600
Wire Wire Line
	2700 3600 1800 3600
Connection ~ 1800 3600
Wire Wire Line
	2900 5350 2900 5950
Connection ~ 2900 5800
Wire Wire Line
	1800 5650 2200 5650
Connection ~ 1800 5650
Wire Wire Line
	3450 6100 2900 6100
Wire Wire Line
	2900 6100 2900 7150
Wire Wire Line
	2900 6550 3450 6550
Wire Wire Line
	3450 6400 2900 6400
Connection ~ 2900 6400
Wire Wire Line
	3450 6250 2900 6250
Connection ~ 2900 6250
Wire Wire Line
	3450 5350 2900 5350
Wire Wire Line
	3450 5500 2900 5500
Connection ~ 2900 5500
Wire Wire Line
	2500 5650 3450 5650
Connection ~ 2900 5650
Wire Wire Line
	3450 5800 2900 5800
Wire Wire Line
	2900 5950 3450 5950
Wire Wire Line
	2900 6700 3450 6700
Wire Wire Line
	2900 7150 3450 7150
Wire Wire Line
	3450 7000 2900 7000
Connection ~ 2900 7000
Wire Wire Line
	3450 6850 2900 6850
Connection ~ 2900 6850
Wire Wire Line
	3450 7300 2900 7300
Wire Wire Line
	2900 7300 2900 7900
Wire Wire Line
	2900 7900 3450 7900
Wire Wire Line
	3450 7750 2900 7750
Connection ~ 2900 7750
Wire Wire Line
	2500 7600 3450 7600
Connection ~ 2900 7600
Wire Wire Line
	3450 7450 2900 7450
Connection ~ 2900 7450
Connection ~ 2900 6700
Connection ~ 2900 6550
Wire Wire Line
	2900 6600 2500 6600
Connection ~ 2900 6600
Wire Wire Line
	2200 6600 1800 6600
Connection ~ 1800 6600
Wire Wire Line
	2200 7600 1800 7600
Connection ~ 1800 7600
Wire Wire Line
	2300 3850 2850 3850
Wire Wire Line
	2600 3850 2600 4300
Wire Wire Line
	2600 4300 2850 4300
Wire Wire Line
	2850 4150 2600 4150
Connection ~ 2600 4150
Wire Wire Line
	2850 4000 2600 4000
Connection ~ 2600 4000
Wire Wire Line
	1800 3900 2000 3900
Connection ~ 1800 3900
Wire Wire Line
	1800 4050 2000 4050
Connection ~ 1800 4050
Wire Wire Line
	1800 4200 2000 4200
Connection ~ 1800 4200
Wire Wire Line
	1800 4350 2000 4350
Connection ~ 1800 4350
Wire Wire Line
	3250 3850 3450 3850
Wire Wire Line
	3250 4000 3450 4000
Wire Wire Line
	3250 4150 3450 4150
Wire Wire Line
	3250 4300 3450 4300
Wire Wire Line
	2300 3900 3400 3900
Wire Wire Line
	3400 3900 3400 3850
Connection ~ 3400 3850
Wire Wire Line
	2300 4050 3400 4050
Wire Wire Line
	3400 4050 3400 4000
Connection ~ 3400 4000
Wire Wire Line
	2300 4200 3400 4200
Wire Wire Line
	3400 4200 3400 4150
Connection ~ 3400 4150
Wire Wire Line
	2300 4350 3400 4350
Wire Wire Line
	3400 4350 3400 4300
Connection ~ 3400 4300
Connection ~ 2600 3850
Connection ~ 1800 5450
Wire Wire Line
	19450 2600 20200 2600
Wire Wire Line
	21100 8900 19450 8900
Wire Wire Line
	21100 2600 21100 8900
Wire Wire Line
	21100 2600 20500 2600
Wire Wire Line
	19450 8750 21100 8750
Connection ~ 21100 8750
Wire Wire Line
	19450 8600 21100 8600
Connection ~ 21100 8600
Wire Wire Line
	19450 8450 21100 8450
Connection ~ 21100 8450
Wire Wire Line
	19450 8300 21100 8300
Connection ~ 21100 8300
Wire Wire Line
	19450 4850 21100 4850
Connection ~ 21100 4850
Wire Wire Line
	19450 5000 21100 5000
Connection ~ 21100 5000
Wire Wire Line
	19450 4700 21100 4700
Connection ~ 21100 4700
Wire Wire Line
	19450 5150 21100 5150
Connection ~ 21100 5150
Wire Wire Line
	19450 5300 21100 5300
Connection ~ 21100 5300
Wire Wire Line
	19450 5450 21100 5450
Connection ~ 21100 5450
Wire Wire Line
	21100 5600 21450 5600
Connection ~ 21100 5600
Wire Wire Line
	19450 5600 20100 5600
Wire Wire Line
	20100 5600 20100 6200
Wire Wire Line
	20100 6200 19450 6200
Wire Wire Line
	19450 6050 20100 6050
Connection ~ 20100 6050
Wire Wire Line
	19450 5900 20450 5900
Connection ~ 20100 5900
Wire Wire Line
	19450 5750 20100 5750
Connection ~ 20100 5750
Wire Wire Line
	19450 6350 20100 6350
Wire Wire Line
	20100 6350 20100 7400
Wire Wire Line
	20100 7400 19450 7400
Wire Wire Line
	19450 7250 20100 7250
Connection ~ 20100 7250
Wire Wire Line
	19450 7100 20100 7100
Connection ~ 20100 7100
Wire Wire Line
	19450 6950 20100 6950
Connection ~ 20100 6950
Wire Wire Line
	19450 6800 20100 6800
Connection ~ 20100 6800
Wire Wire Line
	19450 6650 20100 6650
Connection ~ 20100 6650
Wire Wire Line
	19450 6500 20100 6500
Connection ~ 20100 6500
Wire Wire Line
	19450 7550 20100 7550
Wire Wire Line
	20100 7550 20100 8150
Wire Wire Line
	20100 8150 19450 8150
Wire Wire Line
	19450 8000 20100 8000
Connection ~ 20100 8000
Wire Wire Line
	19450 7850 20450 7850
Connection ~ 20100 7850
Wire Wire Line
	19450 7700 20100 7700
Connection ~ 20100 7700
Wire Wire Line
	20750 5900 21100 5900
Connection ~ 21100 5900
Wire Wire Line
	20750 6900 21100 6900
Connection ~ 21100 6900
Wire Wire Line
	20750 7850 21100 7850
Connection ~ 21100 7850
Wire Wire Line
	20450 6900 20100 6900
Connection ~ 20100 6900
Wire Wire Line
	2300 2950 1800 2950
Connection ~ 1800 2950
Wire Wire Line
	2600 2950 3450 2950
Wire Wire Line
	3450 3100 3150 3100
Wire Wire Line
	3150 3100 3150 3350
Wire Wire Line
	3150 3350 2850 3350
Wire Wire Line
	2850 3150 3050 3150
Wire Wire Line
	3050 3150 3050 2950
Connection ~ 3050 2950
Wire Wire Line
	5400 10100 5400 11800
Wire Wire Line
	4650 11800 9600 11800
Wire Wire Line
	9600 11800 9600 10100
Wire Wire Line
	5550 10100 5550 11800
Connection ~ 5550 11800
Wire Wire Line
	5700 10100 5700 11800
Connection ~ 5700 11800
Wire Wire Line
	5850 10100 5850 11800
Connection ~ 5850 11800
Wire Wire Line
	6000 10100 6000 11800
Connection ~ 6000 11800
Wire Wire Line
	8850 10100 8850 11800
Connection ~ 8850 11800
Wire Wire Line
	9000 10100 9000 11800
Connection ~ 9000 11800
Wire Wire Line
	9150 10100 9150 11800
Connection ~ 9150 11800
Wire Wire Line
	9300 10100 9300 11800
Connection ~ 9300 11800
Wire Wire Line
	9450 10100 9450 11800
Connection ~ 9450 11800
Wire Wire Line
	6150 10100 6150 10800
Wire Wire Line
	6150 10800 6750 10800
Wire Wire Line
	6750 10800 6750 10100
Wire Wire Line
	6600 10100 6600 10800
Connection ~ 6600 10800
Wire Wire Line
	6450 10100 6450 11200
Connection ~ 6450 10800
Wire Wire Line
	6300 10100 6300 10800
Connection ~ 6300 10800
Wire Wire Line
	6900 10100 6900 10800
Wire Wire Line
	6900 10800 7950 10800
Wire Wire Line
	7950 10800 7950 10100
Wire Wire Line
	7050 10100 7050 10800
Connection ~ 7050 10800
Wire Wire Line
	7200 10100 7200 10800
Connection ~ 7200 10800
Wire Wire Line
	7350 10100 7350 10800
Connection ~ 7350 10800
Wire Wire Line
	7500 10100 7500 10800
Connection ~ 7500 10800
Wire Wire Line
	7650 10100 7650 10800
Connection ~ 7650 10800
Wire Wire Line
	7800 10100 7800 10800
Connection ~ 7800 10800
Wire Wire Line
	8100 10100 8100 10800
Wire Wire Line
	8100 10800 8700 10800
Wire Wire Line
	8700 10800 8700 10100
Wire Wire Line
	8550 10100 8550 10800
Connection ~ 8550 10800
Wire Wire Line
	8400 10100 8400 11200
Connection ~ 8400 10800
Wire Wire Line
	8250 10100 8250 10800
Connection ~ 8250 10800
Wire Wire Line
	7400 11800 7400 12500
Connection ~ 7400 11800
Wire Wire Line
	10500 10100 10500 11800
Wire Wire Line
	10500 11800 12900 11800
Wire Wire Line
	12900 11800 12900 10100
Wire Wire Line
	12450 10100 12450 11800
Connection ~ 12450 11800
Wire Wire Line
	12000 10100 12000 11800
Connection ~ 12000 11800
Wire Wire Line
	11550 10100 11550 11800
Connection ~ 11550 11800
Wire Wire Line
	11100 10100 11100 11800
Connection ~ 11100 11800
Wire Wire Line
	11650 11800 11650 12500
Connection ~ 11650 11800
Wire Wire Line
	10350 10100 10350 11800
Wire Wire Line
	10350 11100 13050 11100
Wire Wire Line
	13050 11100 13050 10100
Wire Wire Line
	10950 10100 10950 11100
Connection ~ 10950 11100
Connection ~ 10350 11100
Wire Wire Line
	7450 11200 7450 10800
Connection ~ 7450 10800
Wire Wire Line
	6450 11500 6450 11800
Connection ~ 6450 11800
Wire Wire Line
	7450 11500 7450 11800
Connection ~ 7450 11800
Wire Wire Line
	8400 11500 8400 11800
Connection ~ 8400 11800
Wire Wire Line
	13200 10100 13200 11800
Wire Wire Line
	13200 11800 18000 11800
Wire Wire Line
	17250 11800 17250 10100
Wire Wire Line
	17100 10100 17100 11800
Connection ~ 17100 11800
Wire Wire Line
	16950 10100 16950 11800
Connection ~ 16950 11800
Wire Wire Line
	16800 10100 16800 11800
Connection ~ 16800 11800
Wire Wire Line
	16650 10100 16650 11800
Connection ~ 16650 11800
Wire Wire Line
	13350 10100 13350 11800
Connection ~ 13350 11800
Wire Wire Line
	13500 10100 13500 11800
Connection ~ 13500 11800
Wire Wire Line
	13650 10100 13650 11800
Connection ~ 13650 11800
Wire Wire Line
	13800 10100 13800 11800
Connection ~ 13800 11800
Wire Wire Line
	13950 10100 13950 10800
Wire Wire Line
	13950 10800 14550 10800
Wire Wire Line
	14550 10800 14550 10100
Wire Wire Line
	14700 10100 14700 10800
Wire Wire Line
	14700 10800 15750 10800
Wire Wire Line
	15750 10800 15750 10100
Wire Wire Line
	15900 10100 15900 10800
Wire Wire Line
	15900 10800 16500 10800
Wire Wire Line
	16500 10800 16500 10100
Wire Wire Line
	16350 10100 16350 10800
Connection ~ 16350 10800
Wire Wire Line
	16200 10100 16200 11200
Connection ~ 16200 10800
Wire Wire Line
	16050 10100 16050 10800
Connection ~ 16050 10800
Wire Wire Line
	15600 10100 15600 10800
Connection ~ 15600 10800
Wire Wire Line
	15450 10100 15450 10800
Connection ~ 15450 10800
Wire Wire Line
	15300 10100 15300 10800
Connection ~ 15300 10800
Wire Wire Line
	15150 10100 15150 10800
Connection ~ 15150 10800
Wire Wire Line
	15000 10100 15000 10800
Connection ~ 15000 10800
Wire Wire Line
	14850 10100 14850 10800
Connection ~ 14850 10800
Wire Wire Line
	14400 10100 14400 10800
Connection ~ 14400 10800
Wire Wire Line
	14250 10100 14250 11200
Connection ~ 14250 10800
Wire Wire Line
	14100 10100 14100 10800
Connection ~ 14100 10800
$Comp
L C C17
U 1 1 5B08AFCD
P 14250 11350
AR Path="/5B1BB7BD/5B061770/5B08AFCD" Ref="C17"  Part="1" 
AR Path="/5B1B2A29/5B061770/5B08AFCD" Ref="C42"  Part="1" 
AR Path="/5B1B2A32/5B061770/5B08AFCD" Ref="C67"  Part="1" 
AR Path="/5B1B2A3B/5B061770/5B08AFCD" Ref="C92"  Part="1" 
F 0 "C17" H 14275 11450 50  0000 L CNN
F 1 "2.2u" H 14275 11250 50  0000 L CNN
F 2 "Capacitors_SMD:C_0402_NoSilk" H 14288 11200 50  0001 C CNN
F 3 "" H 14250 11350 50  0001 C CNN
	1    14250 11350
	1    0    0    -1  
$EndComp
$Comp
L C C18
U 1 1 5B08B058
P 15200 11350
AR Path="/5B1BB7BD/5B061770/5B08B058" Ref="C18"  Part="1" 
AR Path="/5B1B2A29/5B061770/5B08B058" Ref="C43"  Part="1" 
AR Path="/5B1B2A32/5B061770/5B08B058" Ref="C68"  Part="1" 
AR Path="/5B1B2A3B/5B061770/5B08B058" Ref="C93"  Part="1" 
F 0 "C18" H 15225 11450 50  0000 L CNN
F 1 "10u" H 15225 11250 50  0000 L CNN
F 2 "Capacitors_SMD:C_0402_NoSilk" H 15238 11200 50  0001 C CNN
F 3 "" H 15200 11350 50  0001 C CNN
	1    15200 11350
	1    0    0    -1  
$EndComp
$Comp
L C C19
U 1 1 5B08B0DF
P 16200 11350
AR Path="/5B1BB7BD/5B061770/5B08B0DF" Ref="C19"  Part="1" 
AR Path="/5B1B2A29/5B061770/5B08B0DF" Ref="C44"  Part="1" 
AR Path="/5B1B2A32/5B061770/5B08B0DF" Ref="C69"  Part="1" 
AR Path="/5B1B2A3B/5B061770/5B08B0DF" Ref="C94"  Part="1" 
F 0 "C19" H 16225 11450 50  0000 L CNN
F 1 "2.2u" H 16225 11250 50  0000 L CNN
F 2 "Capacitors_SMD:C_0402_NoSilk" H 16238 11200 50  0001 C CNN
F 3 "" H 16200 11350 50  0001 C CNN
	1    16200 11350
	1    0    0    -1  
$EndComp
Wire Wire Line
	16200 11500 16200 11800
Connection ~ 16200 11800
Wire Wire Line
	15200 11500 15200 11800
Connection ~ 15200 11800
Wire Wire Line
	15200 11200 15200 10800
Connection ~ 15200 10800
Wire Wire Line
	14250 11500 14250 11800
Connection ~ 14250 11800
Wire Wire Line
	15250 11800 15250 12500
Connection ~ 15250 11800
Text Label 15250 12500 1    60   ~ 0
GND
Text Label 14250 11200 1    60   ~ 0
VDDA3
Text Label 15200 11200 1    60   ~ 0
VIN
Text Label 16200 11200 1    60   ~ 0
VDDD3
Text HLabel 2650 6600 3    60   Input ~ 0
VIN
$Comp
L R R11
U 1 1 5B090EA4
P 4950 10350
AR Path="/5B1BB7BD/5B061770/5B090EA4" Ref="R11"  Part="1" 
AR Path="/5B1B2A29/5B061770/5B090EA4" Ref="R25"  Part="1" 
AR Path="/5B1B2A32/5B061770/5B090EA4" Ref="R39"  Part="1" 
AR Path="/5B1B2A3B/5B061770/5B090EA4" Ref="R53"  Part="1" 
F 0 "R11" V 5030 10350 50  0000 C CNN
F 1 "tbd" V 4950 10350 50  0000 C CNN
F 2 "Resistors_SMD:R_0402_NoSilk" V 4880 10350 50  0001 C CNN
F 3 "" H 4950 10350 50  0001 C CNN
	1    4950 10350
	1    0    0    -1  
$EndComp
Wire Wire Line
	4800 10100 4800 10600
Wire Wire Line
	4800 10600 4950 10600
Wire Wire Line
	4950 10600 4950 10500
Wire Wire Line
	4950 10100 4950 10200
Wire Wire Line
	4900 10600 4900 11000
Connection ~ 4900 10600
Text Label 4900 11000 1    60   ~ 0
VIN
Text Label 4800 10500 1    60   ~ 0
SLDO_A
$Comp
L C C13
U 1 1 5B091AB7
P 5250 11350
AR Path="/5B1BB7BD/5B061770/5B091AB7" Ref="C13"  Part="1" 
AR Path="/5B1B2A29/5B061770/5B091AB7" Ref="C38"  Part="1" 
AR Path="/5B1B2A32/5B061770/5B091AB7" Ref="C63"  Part="1" 
AR Path="/5B1B2A3B/5B061770/5B091AB7" Ref="C88"  Part="1" 
F 0 "C13" H 5275 11450 50  0000 L CNN
F 1 "100n" H 5275 11250 50  0000 L CNN
F 2 "Capacitors_SMD:C_0402_NoSilk" H 5288 11200 50  0001 C CNN
F 3 "" H 5250 11350 50  0001 C CNN
	1    5250 11350
	1    0    0    -1  
$EndComp
Wire Wire Line
	5250 11200 5250 10100
Wire Wire Line
	5250 11500 5250 11800
Connection ~ 5400 11800
Text Label 5250 11200 1    60   ~ 0
SLDO_VREFA
Wire Wire Line
	4650 10100 4650 10800
Wire Wire Line
	4550 10800 4750 10800
Wire Wire Line
	4550 10800 4550 11200
Wire Wire Line
	4750 10800 4750 11200
Connection ~ 4650 10800
$Comp
L C C12
U 1 1 5B0922DE
P 4550 11350
AR Path="/5B1BB7BD/5B061770/5B0922DE" Ref="C12"  Part="1" 
AR Path="/5B1B2A29/5B061770/5B0922DE" Ref="C37"  Part="1" 
AR Path="/5B1B2A32/5B061770/5B0922DE" Ref="C62"  Part="1" 
AR Path="/5B1B2A3B/5B061770/5B0922DE" Ref="C87"  Part="1" 
F 0 "C12" H 4575 11450 50  0000 L CNN
F 1 "100n" H 4575 11250 50  0000 R CNN
F 2 "Capacitors_SMD:C_0402_NoSilk" H 4588 11200 50  0001 C CNN
F 3 "" H 4550 11350 50  0001 C CNN
	1    4550 11350
	1    0    0    -1  
$EndComp
$Comp
L R R10
U 1 1 5B09235B
P 4750 11350
AR Path="/5B1BB7BD/5B061770/5B09235B" Ref="R10"  Part="1" 
AR Path="/5B1B2A29/5B061770/5B09235B" Ref="R24"  Part="1" 
AR Path="/5B1B2A32/5B061770/5B09235B" Ref="R38"  Part="1" 
AR Path="/5B1B2A3B/5B061770/5B09235B" Ref="R52"  Part="1" 
F 0 "R10" V 4830 11350 50  0000 C CNN
F 1 "250k" V 4750 11350 50  0000 C CNN
F 2 "Resistors_SMD:R_0402_NoSilk" V 4680 11350 50  0001 C CNN
F 3 "" H 4750 11350 50  0001 C CNN
	1    4750 11350
	1    0    0    -1  
$EndComp
Wire Wire Line
	4550 11500 4550 11700
Wire Wire Line
	4550 11700 4750 11700
Wire Wire Line
	4750 11700 4750 11500
Wire Wire Line
	4650 11700 4650 11800
Connection ~ 5250 11800
Connection ~ 4650 11700
Text Label 4650 10750 1    60   ~ 0
SLDO_IOFFSETA
$Comp
L R R13
U 1 1 5B093627
P 17700 10350
AR Path="/5B1BB7BD/5B061770/5B093627" Ref="R13"  Part="1" 
AR Path="/5B1B2A29/5B061770/5B093627" Ref="R27"  Part="1" 
AR Path="/5B1B2A32/5B061770/5B093627" Ref="R41"  Part="1" 
AR Path="/5B1B2A3B/5B061770/5B093627" Ref="R55"  Part="1" 
F 0 "R13" V 17780 10350 50  0000 C CNN
F 1 "tbd" V 17700 10350 50  0000 C CNN
F 2 "Resistors_SMD:R_0402_NoSilk" V 17630 10350 50  0001 C CNN
F 3 "" H 17700 10350 50  0001 C CNN
	1    17700 10350
	1    0    0    -1  
$EndComp
Wire Wire Line
	17850 10100 17850 10600
Wire Wire Line
	17850 10600 17700 10600
Wire Wire Line
	17700 10600 17700 10500
Wire Wire Line
	17700 10100 17700 10200
Wire Wire Line
	17800 10600 17800 11000
Connection ~ 17800 10600
Text Label 17800 11000 1    60   ~ 0
VIN
Text Label 17850 10500 1    60   ~ 0
SLDO_D
$Comp
L C C20
U 1 1 5B093635
P 17400 11350
AR Path="/5B1BB7BD/5B061770/5B093635" Ref="C20"  Part="1" 
AR Path="/5B1B2A29/5B061770/5B093635" Ref="C45"  Part="1" 
AR Path="/5B1B2A32/5B061770/5B093635" Ref="C70"  Part="1" 
AR Path="/5B1B2A3B/5B061770/5B093635" Ref="C95"  Part="1" 
F 0 "C20" H 17425 11450 50  0000 L CNN
F 1 "100n" H 17425 11250 50  0000 L CNN
F 2 "Capacitors_SMD:C_0402_NoSilk" H 17438 11200 50  0001 C CNN
F 3 "" H 17400 11350 50  0001 C CNN
	1    17400 11350
	1    0    0    -1  
$EndComp
Wire Wire Line
	17400 11200 17400 10100
Wire Wire Line
	17400 11800 17400 11500
Text Label 17400 11200 1    60   ~ 0
SLDO_VREFD
Wire Wire Line
	18000 10100 18000 10800
Wire Wire Line
	17900 10800 18100 10800
Wire Wire Line
	17900 10800 17900 11200
Wire Wire Line
	18100 10800 18100 11200
Connection ~ 18000 10800
$Comp
L C C21
U 1 1 5B093643
P 17900 11350
AR Path="/5B1BB7BD/5B061770/5B093643" Ref="C21"  Part="1" 
AR Path="/5B1B2A29/5B061770/5B093643" Ref="C46"  Part="1" 
AR Path="/5B1B2A32/5B061770/5B093643" Ref="C71"  Part="1" 
AR Path="/5B1B2A3B/5B061770/5B093643" Ref="C96"  Part="1" 
F 0 "C21" H 17925 11450 50  0000 L CNN
F 1 "100n" H 17925 11250 50  0000 R CNN
F 2 "Capacitors_SMD:C_0402_NoSilk" H 17938 11200 50  0001 C CNN
F 3 "" H 17900 11350 50  0001 C CNN
	1    17900 11350
	1    0    0    -1  
$EndComp
$Comp
L R R14
U 1 1 5B093649
P 18100 11350
AR Path="/5B1BB7BD/5B061770/5B093649" Ref="R14"  Part="1" 
AR Path="/5B1B2A29/5B061770/5B093649" Ref="R28"  Part="1" 
AR Path="/5B1B2A32/5B061770/5B093649" Ref="R42"  Part="1" 
AR Path="/5B1B2A3B/5B061770/5B093649" Ref="R56"  Part="1" 
F 0 "R14" V 18180 11350 50  0000 C CNN
F 1 "250k" V 18100 11350 50  0000 C CNN
F 2 "Resistors_SMD:R_0402_NoSilk" V 18030 11350 50  0001 C CNN
F 3 "" H 18100 11350 50  0001 C CNN
	1    18100 11350
	1    0    0    -1  
$EndComp
Wire Wire Line
	17900 11500 17900 11700
Wire Wire Line
	18100 11700 18100 11500
Text Label 18000 10750 1    60   ~ 0
SLDO_IOFFSETD
Wire Wire Line
	17900 11700 18100 11700
Connection ~ 17250 11800
Wire Wire Line
	18000 11800 18000 11700
Connection ~ 18000 11700
Connection ~ 17400 11800
Wire Wire Line
	5250 10450 5100 10450
Wire Wire Line
	5100 10450 5100 12100
Wire Wire Line
	5100 12100 5600 12100
Connection ~ 5250 10450
$Comp
L R R12
U 1 1 5B1ACC4E
P 5750 12100
AR Path="/5B1BB7BD/5B061770/5B1ACC4E" Ref="R12"  Part="1" 
AR Path="/5B1B2A29/5B061770/5B1ACC4E" Ref="R26"  Part="1" 
AR Path="/5B1B2A32/5B061770/5B1ACC4E" Ref="R40"  Part="1" 
AR Path="/5B1B2A3B/5B061770/5B1ACC4E" Ref="R54"  Part="1" 
F 0 "R12" V 5830 12100 50  0000 C CNN
F 1 "150k" V 5750 12100 50  0000 C CNN
F 2 "Resistors_SMD:R_0402_NoSilk" V 5680 12100 50  0001 C CNN
F 3 "" H 5750 12100 50  0001 C CNN
	1    5750 12100
	0    1    1    0   
$EndComp
Wire Wire Line
	5900 12100 6200 12100
Wire Wire Line
	6200 12100 6200 10900
Wire Wire Line
	6200 10900 6450 10900
Connection ~ 6450 10900
$EndSCHEMATC
