EESchema Schematic File Version 2
LIBS:power
LIBS:device
LIBS:74xx
LIBS:audio
LIBS:interface
LIBS:connsingle
LIBS:rd53a_hybrid_wirebonds
LIBS:solder_pad
LIBS:rd53a_hybrid_pseudoquad-cache
EELAYER 25 0
EELAYER END
$Descr A4 11693 8268
encoding utf-8
Sheet 2 9
Title "RD53A hybrid pseudoquad"
Date ""
Rev "2.0"
Comp ""
Comment1 ""
Comment2 ""
Comment3 ""
Comment4 ""
$EndDescr
$Comp
L ConnSingle J_conn1
U 1 1 5B061738
P 3550 4050
AR Path="/5B1BB7BD/5B061738" Ref="J_conn1"  Part="1" 
AR Path="/5B1B2A29/5B061738" Ref="J_conn2"  Part="1" 
AR Path="/5B1B2A32/5B061738" Ref="J_conn3"  Part="1" 
AR Path="/5B1B2A3B/5B061738" Ref="J_conn4"  Part="1" 
AR Path="/5B061738" Ref="J_conn1"  Part="1" 
F 0 "J_conn1" H 3650 6450 60  0000 C CNN
F 1 "ConnSingle" H 3600 2850 60  0000 C CNN
F 2 "Library:connector" H 3550 3550 60  0001 C CNN
F 3 "" H 3550 3550 60  0001 C CNN
	1    3550 4050
	1    0    0    -1  
$EndComp
$Sheet
S 6650 3450 1400 1750
U 5B061770
F0 "RD53A" 60
F1 "RD53A.sch" 60
F2 "HITOR_3_N" I L 6650 4300 60 
F3 "HITOR_3_P" I L 6650 4400 60 
F4 "HITOR_2_N" I L 6650 4050 60 
F5 "HITOR_2_P" I L 6650 4150 60 
F6 "HITOR_1_P" I L 6650 3900 60 
F7 "HITOR_1_N" I L 6650 3800 60 
F8 "HITOR_0_N" I L 6650 3550 60 
F9 "HITOR_0_P" I L 6650 3650 60 
F10 "DO_3_P" O R 8050 4400 60 
F11 "CMD_P" I R 8050 4650 60 
F12 "DO_3_N" O R 8050 4300 60 
F13 "DO_2_P" O R 8050 4150 60 
F14 "CMD_N" I R 8050 4550 60 
F15 "DO_2_N" O R 8050 4050 60 
F16 "DO_1_P" O R 8050 3900 60 
F17 "DO_1_N" O R 8050 3800 60 
F18 "DO_0_P" O R 8050 3650 60 
F19 "DO_0_N" O R 8050 3550 60 
F20 "VIN" I L 6650 5050 60 
F21 "VIN_RET" O R 8050 5050 60 
F22 "MUX" O L 6650 4700 60 
$EndSheet
Wire Wire Line
	3000 1850 2450 1850
Text Label 2450 1850 0    60   ~ 0
CMD_CON_P
NoConn ~ 4300 4950
NoConn ~ 3000 4850
Wire Wire Line
	4300 1950 4900 1950
Text Label 4900 1950 2    60   ~ 0
CMD_CON_N
Wire Wire Line
	3000 2250 2450 2250
Text Label 2450 2250 0    60   ~ 0
DO_3_P
Wire Wire Line
	3000 2450 2450 2450
Wire Wire Line
	3000 2850 2450 2850
Wire Wire Line
	3000 3050 2450 3050
Wire Wire Line
	3000 3450 2450 3450
Wire Wire Line
	3000 3650 2450 3650
Wire Wire Line
	3000 4050 2450 4050
Wire Wire Line
	3000 4250 2450 4250
Wire Wire Line
	3000 4450 2450 4450
Wire Wire Line
	3000 4650 2450 4650
Wire Wire Line
	3000 5050 2450 5050
Wire Wire Line
	4300 2150 4900 2150
Wire Wire Line
	4300 2550 4900 2550
Wire Wire Line
	4300 2750 4900 2750
Wire Wire Line
	4300 3150 4900 3150
Wire Wire Line
	4300 3350 4900 3350
Wire Wire Line
	4300 3550 4900 3550
Wire Wire Line
	4300 3950 4900 3950
Wire Wire Line
	4300 4150 4900 4150
Wire Wire Line
	4300 4350 4900 4350
Wire Wire Line
	4300 4550 4900 4550
Wire Wire Line
	4300 4750 4900 4750
Wire Wire Line
	3000 2050 2450 2050
Wire Wire Line
	4300 2350 4900 2350
Wire Wire Line
	4300 2950 4900 2950
Wire Wire Line
	3000 2650 2450 2650
Wire Wire Line
	3000 3250 2450 3250
Wire Wire Line
	4300 3750 4900 3750
Wire Wire Line
	3000 3850 2450 3850
Text Label 2450 2050 0    60   ~ 0
GND
Text Label 2450 2650 0    60   ~ 0
GND
Text Label 2450 3250 0    60   ~ 0
GND
Text Label 2450 4650 0    60   ~ 0
GND
Text Label 4900 2350 2    60   ~ 0
GND
Text Label 4900 2950 2    60   ~ 0
GND
Text Label 4900 3750 2    60   ~ 0
GND
Text Label 2450 5050 0    60   ~ 0
HV
Text Label 2450 4450 0    60   ~ 0
HITOR_3_N
Text Label 2450 4250 0    60   ~ 0
HITOR_2_N
Text Label 2450 4050 0    60   ~ 0
HITOR_1_N
Text Label 2450 3850 0    60   ~ 0
HITOR_0_N
Text Label 2450 3650 0    60   ~ 0
NTC_RET
Text Label 2450 3450 0    60   ~ 0
MUX
Text Label 2450 2450 0    60   ~ 0
DO_2_P
Text Label 2450 2850 0    60   ~ 0
DO_1_P
Text Label 2450 3050 0    60   ~ 0
DO_0_P
Text Label 4900 2150 2    60   ~ 0
DO_3_N
Text Label 4900 2550 2    60   ~ 0
DO_2_N
Text Label 4900 2750 2    60   ~ 0
DO_1_N
Text Label 4900 3150 2    60   ~ 0
DO_0_N
Text Label 4900 3350 2    60   ~ 0
VIN
Text Label 4900 3550 2    60   ~ 0
NTC
Text Label 4900 3950 2    60   ~ 0
HITOR_0_P
Text Label 4900 4150 2    60   ~ 0
HITOR_1_P
Text Label 4900 4350 2    60   ~ 0
HITOR_2_P
Text Label 4900 4550 2    60   ~ 0
HITOR_3_P
Text Label 4900 4750 2    60   ~ 0
HV_RET
Wire Wire Line
	8050 5050 8800 5050
Wire Wire Line
	6350 5050 6650 5050
Text Label 6350 5050 0    60   ~ 0
VIN
Text Label 8800 5050 2    60   ~ 0
GND
$Comp
L R R1
U 1 1 5B062FF1
P 6200 5050
AR Path="/5B1BB7BD/5B062FF1" Ref="R1"  Part="1" 
AR Path="/5B1B2A29/5B062FF1" Ref="R15"  Part="1" 
AR Path="/5B1B2A32/5B062FF1" Ref="R29"  Part="1" 
AR Path="/5B1B2A3B/5B062FF1" Ref="R43"  Part="1" 
F 0 "R1" V 6280 5050 50  0000 C CNN
F 1 "25m" V 6200 5050 50  0000 C CNN
F 2 "Resistors_SMD:R_0603" V 6130 5050 50  0001 C CNN
F 3 "" H 6200 5050 50  0001 C CNN
	1    6200 5050
	0    1    1    0   
$EndComp
Wire Wire Line
	6050 5050 5700 5050
Text Label 5700 5050 0    60   ~ 0
VIN_RAW
Wire Wire Line
	6650 3550 6100 3550
Text Label 6100 3550 0    60   ~ 0
HITOR_0_N
Wire Wire Line
	6650 3650 6100 3650
Wire Wire Line
	6650 3800 6100 3800
Wire Wire Line
	6650 3900 6100 3900
Wire Wire Line
	6650 4050 6100 4050
Wire Wire Line
	6650 4150 6100 4150
Wire Wire Line
	6650 4300 6100 4300
Wire Wire Line
	6650 4400 6100 4400
Wire Wire Line
	6650 4700 6100 4700
Wire Wire Line
	8050 3550 8600 3550
Wire Wire Line
	8050 3650 8600 3650
Wire Wire Line
	8050 3800 8600 3800
Wire Wire Line
	8050 3900 8600 3900
Wire Wire Line
	8050 4050 8600 4050
Wire Wire Line
	8050 4150 8600 4150
Wire Wire Line
	8050 4300 8600 4300
Wire Wire Line
	8050 4400 8600 4400
Wire Wire Line
	8050 4550 8600 4550
Wire Wire Line
	8050 4650 8600 4650
Text Label 6100 3650 0    60   ~ 0
HITOR_0_P
Text Label 6100 3800 0    60   ~ 0
HITOR_1_N
Text Label 6100 3900 0    60   ~ 0
HITOR_1_P
Text Label 6100 4050 0    60   ~ 0
HITOR_2_N
Text Label 6100 4150 0    60   ~ 0
HITOR_2_P
Text Label 6100 4300 0    60   ~ 0
HITOR_3_N
Text Label 6100 4400 0    60   ~ 0
HITOR_3_P
Text Label 6100 4700 0    60   ~ 0
MUX
Text Label 8600 3550 2    60   ~ 0
DO_0_N
Text Label 8600 3650 2    60   ~ 0
DO_0_P
Text Label 8600 3800 2    60   ~ 0
DO_1_N
Text Label 8600 3900 2    60   ~ 0
DO_1_P
Text Label 8600 4050 2    60   ~ 0
DO_2_N
Text Label 8600 4150 2    60   ~ 0
DO_2_P
Text Label 8600 4300 2    60   ~ 0
DO_3_N
Text Label 8600 4400 2    60   ~ 0
DO_3_P
Text Label 8600 4550 2    60   ~ 0
CMD_N
Text Label 8600 4650 2    60   ~ 0
CMD_P
Wire Wire Line
	5050 1950 6000 1950
Wire Wire Line
	5050 2250 6000 2250
Wire Wire Line
	5100 2650 6000 2650
$Comp
L C C1
U 1 1 5B063B21
P 6150 1950
AR Path="/5B1BB7BD/5B063B21" Ref="C1"  Part="1" 
AR Path="/5B1B2A29/5B063B21" Ref="C26"  Part="1" 
AR Path="/5B1B2A32/5B063B21" Ref="C51"  Part="1" 
AR Path="/5B1B2A3B/5B063B21" Ref="C76"  Part="1" 
F 0 "C1" H 6175 2050 50  0000 L CNN
F 1 "100n" H 6175 1850 50  0000 L CNN
F 2 "Capacitors_SMD:C_0402_NoSilk" H 6188 1800 50  0001 C CNN
F 3 "" H 6150 1950 50  0001 C CNN
	1    6150 1950
	0    1    1    0   
$EndComp
$Comp
L C C2
U 1 1 5B063B44
P 6150 2250
AR Path="/5B1BB7BD/5B063B44" Ref="C2"  Part="1" 
AR Path="/5B1B2A29/5B063B44" Ref="C27"  Part="1" 
AR Path="/5B1B2A32/5B063B44" Ref="C52"  Part="1" 
AR Path="/5B1B2A3B/5B063B44" Ref="C77"  Part="1" 
F 0 "C2" H 6175 2350 50  0000 L CNN
F 1 "100n" H 6175 2150 50  0000 L CNN
F 2 "Capacitors_SMD:C_0402_NoSilk" H 6188 2100 50  0001 C CNN
F 3 "" H 6150 2250 50  0001 C CNN
	1    6150 2250
	0    1    1    0   
$EndComp
Wire Wire Line
	6300 1950 7150 1950
Wire Wire Line
	6300 2250 7150 2250
$Comp
L R R2
U 1 1 5B063BED
P 6550 2100
AR Path="/5B1BB7BD/5B063BED" Ref="R2"  Part="1" 
AR Path="/5B1B2A29/5B063BED" Ref="R16"  Part="1" 
AR Path="/5B1B2A32/5B063BED" Ref="R30"  Part="1" 
AR Path="/5B1B2A3B/5B063BED" Ref="R44"  Part="1" 
F 0 "R2" V 6630 2100 50  0000 C CNN
F 1 "100" V 6550 2100 50  0000 C CNN
F 2 "Resistors_SMD:R_0402_NoSilk" V 6480 2100 50  0001 C CNN
F 3 "" H 6550 2100 50  0001 C CNN
	1    6550 2100
	1    0    0    -1  
$EndComp
Connection ~ 6550 1950
Connection ~ 6550 2250
Text Label 5050 1950 0    60   ~ 0
CMD_CON_N
Text Label 5050 2250 0    60   ~ 0
CMD_CON_P
Text Label 7150 1950 2    60   ~ 0
CMD_N
Text Label 7150 2250 2    60   ~ 0
CMD_P
$Comp
L Thermistor_NTC TH1
U 1 1 5B063D7E
P 6150 2650
AR Path="/5B1BB7BD/5B063D7E" Ref="TH1"  Part="1" 
AR Path="/5B1B2A29/5B063D7E" Ref="TH2"  Part="1" 
AR Path="/5B1B2A32/5B063D7E" Ref="TH3"  Part="1" 
AR Path="/5B1B2A3B/5B063D7E" Ref="TH4"  Part="1" 
F 0 "TH1" V 5975 2650 50  0000 C CNN
F 1 "Thermistor_NTC" V 6275 2650 50  0000 C CNN
F 2 "Resistors_SMD:R_0402_NoSilk" H 6150 2700 50  0001 C CNN
F 3 "" H 6150 2700 50  0001 C CNN
	1    6150 2650
	0    1    1    0   
$EndComp
Wire Wire Line
	6300 2650 7150 2650
Text Label 5100 2650 0    60   ~ 0
NTC
Text Label 7150 2650 2    60   ~ 0
NTC_RET
$Comp
L GND #PWR01
U 1 1 5B0640CD
P 9400 3050
AR Path="/5B1BB7BD/5B0640CD" Ref="#PWR01"  Part="1" 
AR Path="/5B1B2A29/5B0640CD" Ref="#PWR02"  Part="1" 
AR Path="/5B1B2A32/5B0640CD" Ref="#PWR03"  Part="1" 
AR Path="/5B1B2A3B/5B0640CD" Ref="#PWR04"  Part="1" 
F 0 "#PWR01" H 9400 2800 50  0001 C CNN
F 1 "GND" H 9400 2900 50  0000 C CNN
F 2 "" H 9400 3050 50  0001 C CNN
F 3 "" H 9400 3050 50  0001 C CNN
	1    9400 3050
	1    0    0    -1  
$EndComp
Wire Wire Line
	9400 2850 9400 3050
Wire Wire Line
	7600 2850 8200 2850
$Comp
L R R4
U 1 1 5B0641B5
P 8350 2850
AR Path="/5B1BB7BD/5B0641B5" Ref="R4"  Part="1" 
AR Path="/5B1B2A29/5B0641B5" Ref="R18"  Part="1" 
AR Path="/5B1B2A32/5B0641B5" Ref="R32"  Part="1" 
AR Path="/5B1B2A3B/5B0641B5" Ref="R46"  Part="1" 
F 0 "R4" V 8430 2850 50  0000 C CNN
F 1 "100k" V 8350 2850 50  0000 C CNN
F 2 "Resistors_SMD:R_0402_NoSilk" V 8280 2850 50  0001 C CNN
F 3 "" H 8350 2850 50  0001 C CNN
	1    8350 2850
	0    1    1    0   
$EndComp
Wire Wire Line
	8500 2850 9400 2850
Wire Wire Line
	8700 2550 8700 2850
$Comp
L C C3
U 1 1 5B06423D
P 8700 2400
AR Path="/5B1BB7BD/5B06423D" Ref="C3"  Part="1" 
AR Path="/5B1B2A29/5B06423D" Ref="C28"  Part="1" 
AR Path="/5B1B2A32/5B06423D" Ref="C53"  Part="1" 
AR Path="/5B1B2A3B/5B06423D" Ref="C78"  Part="1" 
F 0 "C3" H 8725 2500 50  0000 L CNN
F 1 "100n" H 8725 2300 50  0000 L CNN
F 2 "Capacitors_SMD:C_0603" H 8738 2250 50  0001 C CNN
F 3 "" H 8700 2400 50  0001 C CNN
	1    8700 2400
	1    0    0    -1  
$EndComp
Wire Wire Line
	8700 2250 8700 1950
Wire Wire Line
	8500 1950 9100 1950
$Comp
L R R3
U 1 1 5B064411
P 8350 1950
AR Path="/5B1BB7BD/5B064411" Ref="R3"  Part="1" 
AR Path="/5B1B2A29/5B064411" Ref="R17"  Part="1" 
AR Path="/5B1B2A32/5B064411" Ref="R31"  Part="1" 
AR Path="/5B1B2A3B/5B064411" Ref="R45"  Part="1" 
F 0 "R3" V 8430 1950 50  0000 C CNN
F 1 "100k" V 8350 1950 50  0000 C CNN
F 2 "Resistors_SMD:R_0402_NoSilk" V 8280 1950 50  0001 C CNN
F 3 "" H 8350 1950 50  0001 C CNN
	1    8350 1950
	0    1    1    0   
$EndComp
Wire Wire Line
	8200 1950 7600 1950
Text Label 7600 1950 0    60   ~ 0
HV
Text Label 7600 2850 0    60   ~ 0
HV_RET
Connection ~ 8700 1950
$Comp
L Solder_Pad U2
U 1 1 5B064CB7
P 9000 5050
AR Path="/5B1BB7BD/5B064CB7" Ref="U2"  Part="1" 
AR Path="/5B1B2A29/5B064CB7" Ref="U6"  Part="1" 
AR Path="/5B1B2A32/5B064CB7" Ref="U10"  Part="1" 
AR Path="/5B1B2A3B/5B064CB7" Ref="U14"  Part="1" 
F 0 "U2" H 9050 5200 59  0000 C CNN
F 1 "Solder_Pad" H 9050 5300 59  0000 C CNN
F 2 "Library:Power_Pad" H 9850 5450 59  0001 C CNN
F 3 "" H 9850 5450 59  0001 C CNN
	1    9000 5050
	1    0    0    -1  
$EndComp
$Comp
L Solder_Pad U1
U 1 1 5B064E0E
P 5500 5050
AR Path="/5B1BB7BD/5B064E0E" Ref="U1"  Part="1" 
AR Path="/5B1B2A29/5B064E0E" Ref="U5"  Part="1" 
AR Path="/5B1B2A32/5B064E0E" Ref="U9"  Part="1" 
AR Path="/5B1B2A3B/5B064E0E" Ref="U13"  Part="1" 
F 0 "U1" H 5550 5200 59  0000 C CNN
F 1 "Solder_Pad" H 5550 5300 59  0000 C CNN
F 2 "Library:Power_Pad" H 6350 5450 59  0001 C CNN
F 3 "" H 6350 5450 59  0001 C CNN
	1    5500 5050
	-1   0    0    1   
$EndComp
$Comp
L Solder_Pad U3
U 1 1 5B064E4C
P 9300 1950
AR Path="/5B1BB7BD/5B064E4C" Ref="U3"  Part="1" 
AR Path="/5B1B2A29/5B064E4C" Ref="U7"  Part="1" 
AR Path="/5B1B2A32/5B064E4C" Ref="U11"  Part="1" 
AR Path="/5B1B2A3B/5B064E4C" Ref="U15"  Part="1" 
F 0 "U3" H 9350 2100 59  0000 C CNN
F 1 "Solder_Pad" H 9350 2200 59  0000 C CNN
F 2 "Library:HV" H 10150 2350 59  0001 C CNN
F 3 "" H 10150 2350 59  0001 C CNN
	1    9300 1950
	1    0    0    -1  
$EndComp
Text Label 9100 1950 2    60   ~ 0
HV_F
Text HLabel 5800 5050 3    60   Input ~ 0
VIN_RAW
Text HLabel 8400 5050 3    60   Output ~ 0
VIN_RET
Connection ~ 8700 2850
$EndSCHEMATC
